"GEO","Value"
"BE10","58.28"
"BE21","63.37"
"BE22","70.83"
"BE23","59.52"
"BE24","52.26"
"BE25","55.1"
"BE31","52.8"
"BE32","67.67"
"BE33","74.42"
"BE34","73.8"
"BE35","70.41"
"BG31","45.87"
"BG32","45.69"
"BG33","49.48"
"BG34","45.09"
"BG41","41.88"
"BG42","50.91"
"CZ01","55.94"
"CZ02","66.52"
"CZ03","54.86"
"CZ04","78.53"
"CZ05","55.47"
"CZ06","50.4"
"CZ07","45.87"
"CZ08","60.17"
"DK01","71.46"
"DK02","80.12"
"DK03","74.46"
"DK04","69.09"
"DK05","75.83"
"DE11","39.21"
"DE12","43.72"
"DE13","38.28"
"DE14","36.49"
"DE21","39.14"
"DE22","41.44"
"DE23","42.94"
"DE24","40.75"
"DE25","41.48"
"DE26","38.06"
"DE27","38.21"
"DE30","62.04"
"DE40","51.62"
"DE50","62.43"
"DE60","62.76"
"DE71","47.07"
"DE72","45.64"
"DE73","48.06"
"DE80","55.94"
"DE91","52.99"
"DE92","52.69"
"DE93","55.05"
"DE94","52.25"
"DEA1","67.16"
"DEA2","60.51"
"DEA3","61.9"
"DEA4","49.86"
"DEA5","63.5"
"DEB1","56.32"
"DEB2","57.72"
"DEB3","51.51"
"DEC0","66.86"
"DED2","37.04"
"DED4","41.55"
"DED5","48.39"
"DEE0","53.71"
"DEF0","55.07"
"DEG0","42.77"
"EE00","52.51"
"IE01","56.01"
"IE02","63.05"
"EL11","63.42"
"EL12","62.93"
"EL13","54.53"
"EL14","56.79"
"EL21","51.12"
"EL22","52.62"
"EL23","65.82"
"EL24","55.11"
"EL25","51.13"
"EL30","62.88"
"EL41","52.41"
"EL42","56.15"
"EL43","59.89"
"ES11","48.24"
"ES12","59.32"
"ES13","53.56"
"ES21","49.86"
"ES22","50.67"
"ES23","44.82"
"ES24","51.92"
"ES30","46.33"
"ES41","44.42"
"ES42","49.56"
"ES43","59.57"
"ES51","50.09"
"ES52","50.44"
"ES53","51.27"
"ES61","49.78"
"ES62","48.5"
"ES63","53.09"
"ES64","54.35"
"ES70","50.09"
"FR10","48.37"
"FR21","56.94"
"FR22","57.31"
"FR23","53.65"
"FR24","50.58"
"FR25","49.46"
"FR26","52.2"
"FR30","57.26"
"FR41","59.55"
"FR42","49.3"
"FR43","53.56"
"FR51","42.93"
"FR52","49.46"
"FR53","51.1"
"FR61","51.15"
"FR62","44.82"
"FR63","47.04"
"FR71","47.2"
"FR72","47.96"
"FR81","54.3"
"FR82","50.19"
"FR83","62.76"
"HR03","64.07"
"HR04","67.29"
"ITC1","53.04"
"ITC2","50.42"
"ITC3","53.33"
"ITC4","55.2"
"ITH1","43.22"
"ITH2","47.28"
"ITH3","50.21"
"ITH4","52.98"
"ITH5","53.13"
"ITI1","50.88"
"ITI2","43.45"
"ITI3","42.63"
"ITI4","61.6"
"ITF1","38.51"
"ITF2","30.85"
"ITF3","60.15"
"ITF4","45.02"
"ITF5","35.18"
"ITF6","36.02"
"ITG1","47.33"
"ITG2","48.78"
"CY00","38.25"
"LV00","49.36"
"LT00","46.9"
"LU00","52.4"
"HU10","89.69"
"HU21","88.05"
"HU22","78.13"
"HU23","94.47"
"HU31","91.93"
"HU32","98.35"
"HU33","93.46"
"MT00","44.18"
"NL11","77.66"
"NL12","62.23"
"NL13","66.25"
"NL21","65.32"
"NL22","68.28"
"NL23",73
"NL31","66.79"
"NL32","66.47"
"NL33","72.84"
"NL34","59.25"
"NL41","73.87"
"NL42","72.82"
"AT11","44.15"
"AT12","44.96"
"AT13","57.86"
"AT21","47.32"
"AT22","41.79"
"AT31","39.73"
"AT32","38.07"
"AT33","45.86"
"AT34","44.88"
"PL11","67.68"
"PL12","76.18"
"PL21","60.61"
"PL22","65.81"
"PL31","60.02"
"PL32","49.24"
"PL33","64.31"
"PL34","63.69"
"PL41","68.57"
"PL42","76.34"
"PL43","74.15"
"PL51","72.59"
"PL52","62.19"
"PL61","78.99"
"PL62","88.61"
"PL63","79.28"
"PT11","38.08"
"PT15","40.93"
"PT16","25.85"
"PT17","40.35"
"PT18","32.37"
"PT20","72.65"
"PT30","39.21"
"RO11","52.78"
"RO12","50.78"
"RO21","47.74"
"RO22","52.6"
"RO31","52.23"
"RO32","69.74"
"RO41","41.36"
"RO42","61.94"
"SI","38.6"
"SK01","50.17"
"SK02","54.26"
"SK03","51.91"
"SK04","51.74"
"FI19","35.6"
"FI1B","47.19"
"FI1C","40.03"
"FI1D","41.01"
"FI20","42.64"
"SE11","41.89"
"SE12","42.66"
"SE21","35.04"
"SE22","46.18"
"SE23","36.71"
"SE31","35.81"
"SE32","31.69"
"SE33","31.62"
"UKC1","84.51"
"UKC2","88.12"
"UKD1","58.15"
"UKD3","80.9"
"UKD4","69.23"
"UKD6","59.51"
"UKD7","88.98"
"UKE1","71.71"
"UKE2","51.71"
"UKE3","76.35"
"UKE4","77.52"
"UKF1","58.98"
"UKF2","55.76"
"UKF3","53.63"
"UKG1","47.96"
"UKG2",58
"UKG3","65.58"
"UKH1","49.35"
"UKH2","52.25"
"UKH3","57.72"
"UKJ1","48.9"
"UKJ2","47.93"
"UKJ3","50.01"
"UKJ4","55.8"
"UKK1","50.28"
"UKK2","45.93"
"UKK3","50.88"
"UKK4","52.53"
"UKL1","64.71"
"UKL2","59.7"
"UKM2","80.71"
"UKM3","98.88"
"UKM5","67.17"
"UKM6","66.75"
"UKN0","65.82"
"LI00","37.83"
"NO01","49.06"
"NO02","51.65"
"NO03","56.39"
"NO04","58.45"
"NO05","49.28"
"NO06","51.45"
"NO07","57.91"
"CH01","46.66"
"CH02","42.88"
"CH03","43.67"
"CH04","40.37"
"CH05","42.3"
"CH06","36.59"
"CH07","50.57"
