"GEO","Value"
"BE10","16.31"
"BE21","12.62"
"BE22","13.24"
"BE23","17.66"
"BE24","15.06"
"BE25","13.9"
"BE31","13.38"
"BE32","20.88"
"BE33","16.73"
"BE34","20.74"
"BE35","17.54"
"BG31","20.28"
"BG32","25.38"
"BG33","45.46"
"BG34","9.36"
"BG41","26.46"
"BG42","10.52"
"CZ01","23.37"
"CZ02","40.23"
"CZ03","42.44"
"CZ04","40.09"
"CZ05","33.86"
"CZ06","30.92"
"CZ07","26.2"
"CZ08","36.29"
"DK01","28.67"
"DK02","32.33"
"DK03","26.43"
"DK04","27.04"
"DK05","26.66"
"DE11","29.01"
"DE12","27.42"
"DE13","30.71"
"DE14",30
"DE21","24.84"
"DE22","32.99"
"DE23","35.98"
"DE24","35.47"
"DE25","31.51"
"DE26","33.36"
"DE27","31.04"
"DE30","33.86"
"DE40","36.2"
"DE50","18.54"
"DE60","19.12"
"DE71","32.14"
"DE72","43.64"
"DE73","46.94"
"DE80","28.32"
"DE91","25.5"
"DE92","24.65"
"DE93","26.61"
"DE94","30.36"
"DEA1","16.87"
"DEA2","15.3"
"DEA3","16.11"
"DEA4","16.91"
"DEA5","17.16"
"DEB1","31.18"
"DEB2","30.11"
"DEB3","33.41"
"DEC0","42.56"
"DED2","25.84"
"DED4","36.69"
"DED5","29.24"
"DEE0","46.3"
"DEF0","13.66"
"DEG0","47.4"
"EE00","11.87"
"IE01","22.54"
"IE02","17.89"
"EL11","15.35"
"EL12","13.71"
"EL13","10.01"
"EL14","11.15"
"EL21","8.09"
"EL22","9.76"
"EL23","9.44"
"EL24","11.88"
"EL25","8.89"
"EL30","9.34"
"EL41","7.86"
"EL42","11.65"
"EL43","9.84"
"ES11","11.02"
"ES12","24.23"
"ES13","6.22"
"ES21","20.38"
"ES22","14.16"
"ES23","17.32"
"ES24","24.06"
"ES30","13.9"
"ES41","23.62"
"ES42","28.7"
"ES43","22.14"
"ES51","19.96"
"ES52","22.45"
"ES53","25.15"
"ES61","20.69"
"ES62","24.19"
"ES63","57.57"
"ES64","47.53"
"ES70","78.79"
"FR10","14.1"
"FR21","24.26"
"FR22","23.26"
"FR23","19.28"
"FR24","19.62"
"FR25","14.97"
"FR26","22.02"
"FR30","24.43"
"FR41","21.68"
"FR42","21.19"
"FR43","18.75"
"FR51","14.18"
"FR52","12.42"
"FR53","16.23"
"FR61","17.19"
"FR62","16.17"
"FR63","20.2"
"FR71","16.07"
"FR72","20.44"
"FR81","19.76"
"FR82","15.76"
"FR83","17.5"
"HR03","29.54"
"HR04","34.67"
"ITC1","24.98"
"ITC2","20.12"
"ITC3","28.21"
"ITC4","20.94"
"ITH1","10.72"
"ITH2","20.9"
"ITH3","24.72"
"ITH4","22.72"
"ITH5","23.58"
"ITI1","27.27"
"ITI2","24.25"
"ITI3","23.74"
"ITI4","32.87"
"ITF1","32.32"
"ITF2","33.39"
"ITF3","54.52"
"ITF4","43.25"
"ITF5","41.17"
"ITF6","46.57"
"ITG1","54.29"
"ITG2","25.82"
"CY00","71.33"
"LV00","24.95"
"LT00","10.6"
"LU00","16.74"
"HU10","23.81"
"HU21","45.24"
"HU22","33.03"
"HU23","49.84"
"HU31","28.82"
"HU32","22.37"
"HU33","31.67"
"MT00","18.48"
"NL11","25.04"
"NL12","22.71"
"NL13","19.58"
"NL21","24.5"
"NL22","19.9"
"NL23","24.26"
"NL31","20.29"
"NL32","21.12"
"NL33","20.97"
"NL34","18.39"
"NL41","19.11"
"NL42","17.16"
"AT11","57.63"
"AT12","47.15"
"AT13","32.49"
"AT21",38
"AT22","39.81"
"AT31","35.08"
"AT32","26.34"
"AT33","28.86"
"AT34","30.17"
"PL11","18.75"
"PL12","19.84"
"PL21","14.35"
"PL22","35.52"
"PL31","21.06"
"PL32","14.78"
"PL33","12.85"
"PL34","22.78"
"PL41","32.8"
"PL42","21.3"
"PL43","35.06"
"PL51","30.13"
"PL52","31.61"
"PL61","16.37"
"PL62","38.33"
"PL63","30.46"
"PT11","43.9"
"PT15","33.34"
"PT16","43.39"
"PT17","40.14"
"PT18","56.7"
"PT20","84.52"
"PT30","64.57"
"RO11","6.37"
"RO12","20.92"
"RO21","14.34"
"RO22","16.34"
"RO31","13.11"
"RO32","6.7"
"RO41","9.87"
"RO42","12.57"
"SI","11.47"
"SK01","17.73"
"SK02","24.04"
"SK03","19.7"
"SK04","25.77"
"FI19","8.41"
"FI1B","9.71"
"FI1C","10.13"
"FI1D","9.3"
"FI20","7.06"
"SE11","15.91"
"SE12","22.12"
"SE21","22.65"
"SE22","20.31"
"SE23","21.46"
"SE31","23.75"
"SE32","27.06"
"SE33","21.35"
"UKC1","10.98"
"UKC2","7.95"
"UKD1","8.9"
"UKD3","8.84"
"UKD4","10.64"
"UKD6","7.28"
"UKD7","10.1"
"UKE1","13.01"
"UKE2","9.16"
"UKE3","8.61"
"UKE4","9.95"
"UKF1","11.31"
"UKF2","10.25"
"UKF3","12.11"
"UKG1","9.07"
"UKG2","9.73"
"UKG3","15.24"
"UKH1","10.1"
"UKH2","9.35"
"UKH3","9.62"
"UKJ1","8.48"
"UKJ2","6.59"
"UKJ3","8.84"
"UKJ4","9.34"
"UKK1","8.98"
"UKK2","9.49"
"UKK3","7.92"
"UKK4","8.68"
"UKL1","11.11"
"UKL2","8.6"
"UKM2","14.18"
"UKM3","16.25"
"UKM5","15.82"
"UKM6","17.17"
"UKN0","12.48"
"LI00",
"NO01","15.72"
"NO02","20.2"
"NO03","18.54"
"NO04","15.82"
"NO05","14.19"
"NO06","16.04"
"NO07","18.68"
"CH01","11.94"
"CH02","20.36"
"CH03","16.33"
"CH04","16.97"
"CH05","24.61"
"CH06","16.03"
"CH07","9.08"
